<?xml version="1.0" standalone="no"?>
<!DOCTYPE svg PUBLIC "-//W3C//DTD SVG 20010904//EN"
 "http://www.w3.org/TR/2001/REC-SVG-20010904/DTD/svg10.dtd">
<svg version="1.0" xmlns="http://www.w3.org/2000/svg"
 width="1024.000000pt" height="1024.000000pt" viewBox="0 0 1024.000000 1024.000000"
 preserveAspectRatio="xMidYMid meet">
<metadata>
Created by potrace 1.11, written by Peter Selinger 2001-2013
</metadata>
<g transform="translate(0.000000,1024.000000) scale(0.100000,-0.100000)"
fill="#000000" stroke="none">
<path d="M4577 10234 c-1 -1 -31 -5 -67 -8 -70 -7 -227 -31 -300 -46 -25 -5
-57 -12 -72 -15 -60 -11 -84 -16 -100 -21 -10 -3 -30 -7 -44 -10 -15 -3 -34
-9 -43 -13 -9 -5 -33 -11 -54 -15 -53 -10 -259 -76 -274 -88 -7 -6 -13 -7 -13
-3 0 4 -7 1 -17 -6 -9 -8 -18 -13 -20 -11 -5 4 -101 -32 -170 -64 -30 -13 -56
-24 -59 -24 -13 0 -329 -162 -332 -171 -2 -5 -12 -9 -22 -9 -10 0 -21 -4 -24
-8 -3 -5 -49 -35 -103 -68 -54 -32 -100 -61 -103 -64 -3 -3 -39 -27 -80 -55
-41 -27 -86 -61 -101 -75 -15 -14 -42 -36 -60 -50 -40 -31 -261 -248 -315
-311 -54 -63 -119 -150 -179 -240 -48 -73 -61 -93 -88 -141 -6 -13 -14 -25
-17 -28 -9 -9 -80 -159 -80 -168 0 -5 -7 -15 -15 -22 -8 -7 -15 -18 -15 -25 0
-7 -7 -29 -15 -49 -8 -20 -16 -39 -17 -43 -1 -5 -7 -19 -14 -32 -7 -14 -11
-28 -8 -33 3 -4 1 -8 -3 -8 -5 0 -15 -21 -23 -47 -7 -27 -14 -51 -15 -55 -2
-5 -4 -11 -5 -15 -2 -5 -4 -12 -5 -18 -1 -5 -5 -17 -8 -25 -10 -23 -57 -220
-63 -260 -3 -19 -6 -42 -8 -50 -1 -8 -6 -37 -10 -65 -4 -27 -10 -61 -12 -75
-3 -14 -7 -54 -10 -90 -2 -36 -7 -92 -10 -125 -8 -88 -7 -384 1 -505 13 -192
18 -231 50 -438 2 -12 6 -30 9 -40 3 -9 7 -33 10 -52 3 -19 10 -50 15 -67 5
-18 8 -33 6 -33 -2 0 2 -18 10 -41 8 -23 12 -45 9 -50 -3 -5 0 -9 5 -9 6 0 11
-7 11 -15 0 -47 150 -435 171 -443 5 -2 9 -11 9 -21 0 -9 4 -21 9 -26 5 -6 21
-32 36 -60 82 -150 197 -298 347 -447 53 -53 114 -109 135 -124 21 -15 43 -33
48 -38 6 -6 24 -20 40 -32 142 -99 195 -134 204 -134 6 0 11 -4 11 -9 0 -5 16
-16 35 -25 19 -9 37 -21 40 -26 4 -6 11 -8 16 -5 5 4 9 2 9 -3 0 -5 16 -17 35
-28 19 -10 35 -22 35 -27 0 -4 3 -6 8 -4 4 3 25 -5 47 -18 74 -43 330 -170
338 -167 4 1 7 -3 7 -10 0 -6 3 -8 7 -5 3 4 11 3 17 -2 6 -5 61 -30 121 -56
119 -51 147 -63 300 -120 55 -20 114 -43 130 -50 17 -8 42 -16 55 -18 14 -3
39 -10 55 -17 17 -7 39 -16 50 -20 19 -7 191 -62 208 -66 4 -1 8 -2 10 -4 1
-1 10 -3 19 -5 9 -2 39 -10 65 -18 121 -37 409 -116 453 -123 14 -3 33 -7 42
-10 9 -3 25 -7 35 -9 10 -2 47 -12 83 -20 36 -9 72 -18 80 -20 98 -24 220 -57
240 -65 14 -5 34 -11 45 -13 11 -2 27 -7 35 -10 8 -4 26 -9 40 -11 14 -3 26
-5 28 -7 1 -1 5 -2 10 -3 6 -2 82 -25 102 -31 3 -1 12 -4 20 -7 8 -3 71 -25
140 -48 69 -22 132 -44 140 -47 8 -4 17 -7 20 -8 3 -1 22 -9 44 -18 21 -9 42
-17 47 -17 5 0 25 -9 46 -19 21 -11 65 -32 98 -47 33 -15 89 -45 124 -66 34
-21 67 -38 72 -38 5 0 14 -9 21 -20 7 -11 16 -20 21 -20 32 0 197 -225 197
-269 0 -9 4 -21 9 -27 11 -12 28 -86 36 -159 4 -33 9 -63 12 -67 2 -5 1 -8 -4
-8 -4 0 -9 -24 -9 -53 -1 -45 -9 -102 -14 -102 -1 0 -3 -9 -5 -20 -7 -40 -36
-108 -70 -161 -19 -30 -35 -56 -35 -59 0 -15 -105 -113 -161 -150 -98 -65
-280 -144 -369 -161 -14 -3 -41 -9 -60 -14 -95 -24 -190 -32 -355 -30 -132 1
-260 6 -260 10 0 1 -16 3 -35 5 -44 3 -117 13 -150 20 -14 3 -52 10 -85 15
-33 6 -74 15 -92 21 -17 6 -44 12 -60 15 -15 3 -86 23 -158 46 -325 102 -650
256 -995 471 -140 87 -168 106 -310 206 -75 52 -260 190 -276 206 -6 5 -26 21
-44 35 -63 47 -155 123 -168 138 -6 9 -12 12 -12 8 0 -5 -8 1 -17 12 -10 10
-49 46 -88 78 -74 63 -130 111 -150 131 -14 13 -39 -10 -100 -92 -16 -22 -35
-47 -42 -55 -41 -52 -81 -102 -100 -126 -27 -34 -223 -284 -263 -334 -25 -31
-250 -318 -271 -345 -5 -5 -21 -26 -36 -45 -16 -19 -41 -51 -56 -72 -15 -20
-33 -42 -40 -50 -7 -7 -24 -29 -37 -48 -13 -19 -32 -42 -42 -51 -10 -9 -18
-21 -18 -27 0 -6 -3 -12 -8 -14 -4 -1 -42 -48 -85 -103 -43 -55 -86 -109 -96
-120 -9 -11 -52 -66 -96 -122 -43 -57 -82 -103 -86 -103 -5 0 -9 -5 -9 -10 0
-6 -18 -33 -40 -61 l-39 -50 32 -30 c18 -17 61 -57 96 -88 35 -31 74 -65 85
-76 37 -35 160 -140 246 -210 25 -20 62 -51 84 -68 21 -18 45 -38 52 -45 7 -6
16 -12 19 -12 4 0 21 -11 39 -26 99 -80 296 -222 374 -269 10 -5 19 -13 22
-16 4 -4 126 -81 195 -122 11 -7 38 -23 60 -37 22 -14 63 -37 90 -50 28 -14
52 -28 55 -31 9 -11 265 -144 273 -141 4 1 7 -2 7 -8 0 -5 6 -10 13 -10 6 0
46 -18 89 -39 42 -22 79 -37 82 -34 3 4 6 1 6 -5 0 -7 3 -11 8 -10 8 1 30 -7
125 -51 37 -17 69 -31 72 -31 2 0 16 -5 32 -12 15 -6 30 -12 33 -13 3 -1 14
-5 25 -10 60 -24 179 -67 240 -86 39 -12 76 -27 84 -33 8 -6 16 -10 18 -8 1 1
4 2 6 1 1 0 10 -2 19 -4 9 -2 39 -10 65 -18 84 -26 128 -38 143 -41 8 -2 22
-6 30 -9 20 -7 178 -46 212 -51 15 -3 31 -7 35 -9 5 -3 24 -8 43 -11 19 -3 67
-12 105 -20 62 -12 102 -19 182 -31 27 -4 100 -16 126 -21 10 -2 38 -4 63 -5
24 -2 44 -5 44 -8 0 -3 19 -7 43 -7 23 -1 71 -4 107 -8 165 -15 265 -19 535
-20 256 -1 468 6 560 19 17 2 55 7 85 10 142 16 168 19 225 31 17 3 46 7 65 9
19 2 35 4 35 5 0 1 7 3 15 5 8 1 42 8 75 15 33 7 69 14 80 16 11 2 29 5 40 8
11 3 38 10 60 16 43 11 63 16 110 26 17 3 35 10 41 15 6 5 24 11 40 13 16 2
56 14 89 26 33 12 67 23 75 25 13 3 123 44 175 65 117 48 329 152 337 164 4 6
8 8 8 4 0 -8 143 75 173 100 9 8 17 11 17 6 0 -5 4 -4 8 2 4 6 27 24 52 39 25
15 57 37 71 49 14 12 36 28 49 36 45 30 170 130 206 166 12 11 34 31 50 43 66
51 220 209 289 296 22 27 52 63 67 80 16 16 28 34 28 38 0 5 7 15 16 24 22 22
122 174 177 268 88 152 225 467 230 527 1 10 4 18 7 18 4 0 7 6 8 13 1 6 15
63 32 126 30 114 38 148 44 186 2 11 6 40 10 65 12 74 15 93 23 150 10 76 10
584 -1 700 -13 151 -11 141 -43 330 -20 121 -45 241 -61 280 -8 21 -8 22 -16
55 -37 145 -152 413 -234 548 -23 37 -42 72 -42 77 0 6 -4 10 -8 10 -5 0 -15
12 -23 28 -13 25 -46 71 -117 161 -67 84 -203 223 -292 296 -25 21 -47 40 -50
44 -3 3 -25 22 -50 41 -25 19 -46 38 -48 42 -2 4 -8 8 -13 8 -5 0 -35 20 -66
43 -32 24 -89 65 -128 90 -38 26 -74 50 -80 55 -31 23 -65 41 -65 35 0 -5 -4
-3 -8 3 -4 7 -25 22 -47 34 -22 13 -67 38 -100 57 -77 43 -355 182 -355 177 0
-2 -17 5 -37 15 -46 23 -130 61 -136 61 -3 0 -21 7 -41 15 -20 8 -39 16 -43
16 -5 1 -16 5 -26 11 -17 9 -167 65 -197 73 -8 3 -55 18 -105 35 -49 17 -101
33 -114 36 -14 3 -28 7 -32 10 -4 2 -47 16 -96 29 -48 14 -95 28 -103 32 -8 3
-24 7 -35 9 -11 1 -81 19 -155 39 -74 20 -144 38 -155 40 -38 9 -60 15 -170
44 -161 43 -224 60 -285 78 -30 9 -61 18 -67 20 -7 2 -19 4 -25 6 -7 2 -40 12
-73 22 -33 10 -64 19 -70 21 -5 1 -30 9 -55 17 -25 9 -56 18 -70 21 -14 2 -41
11 -60 19 -19 8 -39 16 -45 17 -5 1 -20 6 -33 11 -13 5 -29 9 -37 9 -8 0 -17
5 -20 10 -3 6 -14 10 -23 10 -33 0 -434 165 -440 181 -2 5 -9 9 -15 9 -15 0
-113 66 -158 105 -44 39 -109 119 -109 134 0 6 -4 11 -10 11 -5 0 -10 4 -10 9
0 5 -10 30 -22 57 -25 57 -24 54 -38 119 -6 27 -8 55 -6 62 3 7 2 14 -3 17 -8
6 -7 111 3 176 10 61 55 191 74 213 8 9 12 17 9 17 -8 0 52 88 88 129 48 54
157 125 261 171 53 23 101 43 108 45 6 1 18 5 26 8 19 8 96 27 130 32 14 2 50
7 80 11 138 20 539 0 740 -36 30 -5 71 -12 90 -15 19 -3 44 -7 55 -10 38 -7
110 -23 133 -29 12 -3 31 -8 41 -10 11 -3 55 -14 98 -27 43 -12 83 -22 88 -24
6 -1 17 -5 25 -8 8 -3 44 -15 80 -28 36 -12 73 -26 83 -31 9 -5 17 -6 17 -3 0
6 -58 91 -117 168 -23 31 -43 61 -43 66 0 5 -4 11 -8 13 -5 2 -27 30 -50 63
-22 33 -78 112 -124 175 -46 64 -90 125 -98 137 -14 20 -160 224 -205 286 -11
15 -42 60 -70 100 -27 40 -52 74 -55 77 -4 3 -28 37 -54 75 -27 39 -57 79 -67
91 -11 11 -19 24 -19 28 0 4 -6 13 -12 20 -7 8 -20 24 -28 36 -18 26 -86 121
-97 135 -5 6 -40 55 -78 109 -39 55 -83 118 -100 142 -16 23 -57 79 -89 125
-33 46 -63 86 -68 87 -4 2 -8 8 -8 14 0 5 -16 29 -35 52 -19 24 -35 46 -35 50
0 4 -22 36 -50 71 -27 35 -50 69 -50 74 0 5 -4 11 -8 13 -4 2 -28 32 -52 68
-25 36 -51 71 -58 78 -6 8 -17 22 -22 33 -8 14 -20 18 -51 16 -22 -1 -41 -3
-42 -3z"/>
</g>
</svg>
