<svg xmlns="http://www.w3.org/2000/svg" viewBox="8634.494 10413.449 327.912 237.301">
  <defs>
    <style>
      .cls-1 {
        fill: #82bc00;
      }
    </style>
  </defs>
  <g id="Group_555" data-name="Group 555" transform="translate(8634.395 10413.449)">
    <path id="Path_684" data-name="Path 684" class="cls-1" d="M163.5.087,162.894,0,93.4,21.117l6.664,101.169,98.573,32.194L251.428,107.4l6.058-94.938ZM105.083,118.477,98.939,25.011,163.413,5.452l88.62,11.683-5.625,87.841-48.9,43.7Z" transform="translate(-12.555)"/>
    <g id="Group_553" data-name="Group 553" transform="translate(0.1 203.203)">
      <path id="Path_685" data-name="Path 685" d="M14.12,245.785a4.908,4.908,0,0,1-1.817,4.068,8.628,8.628,0,0,1-5.366,1.385c-4.327,0-6.664-1.9-6.837-5.625H3.129a2.733,2.733,0,0,0,1.125,2.25,4.941,4.941,0,0,0,2.856.692,5.623,5.623,0,0,0,3.116-.606,2.462,2.462,0,0,0,.952-2.164V235.4h3.029v10.385Z" transform="translate(-0.1 -234.881)"/>
      <path id="Path_686" data-name="Path 686" d="M43.051,243.022a7.44,7.44,0,0,1-3.2,6.145,11.121,11.121,0,0,1-6.923,1.99A11.7,11.7,0,0,1,26,249.166a7.225,7.225,0,0,1-3.2-6.145,7.309,7.309,0,0,1,3.289-6.145,11.512,11.512,0,0,1,6.923-2.077,11.248,11.248,0,0,1,6.837,2.077A7.44,7.44,0,0,1,43.051,243.022Zm-3.116,0a4.722,4.722,0,0,0-1.99-3.894,7.9,7.9,0,0,0-5.019-1.558,7.983,7.983,0,0,0-5.106,1.558A4.955,4.955,0,0,0,27.733,247a7.983,7.983,0,0,0,5.106,1.558A7.983,7.983,0,0,0,37.945,247,4.88,4.88,0,0,0,39.936,243.022Z" transform="translate(-3.155 -234.8)"/>
      <path id="Path_687" data-name="Path 687" d="M70.6,250.8H66.1L55.629,237.91V250.8H52.6V235.4h4.5l10.558,12.895V235.4h3.029v15.4Z" transform="translate(-7.165 -234.881)"/>
      <path id="Path_688" data-name="Path 688" d="M98.611,250.8H95.322L93.5,247.516h-10.3L81.389,250.8H78.1l8.395-15.4h3.721Zm-6.577-5.971L88.4,238l-3.721,6.837Z" transform="translate(-10.596 -234.881)"/>
      <path id="Path_689" data-name="Path 689" d="M118.141,238.083h-7.356V250.8h-3.029V238.083H100.4V235.4h17.741Z" transform="translate(-13.597 -234.881)"/>
      <path id="Path_690" data-name="Path 690" d="M143.7,250.8h-3.029v-6.664H128.729V250.8H125.7V235.4h3.029v6.058h11.943V235.4H143.7Z" transform="translate(-17.002 -234.881)"/>
      <path id="Path_691" data-name="Path 691" d="M171.7,250.8h-3.289l-1.817-3.289H156.206l-1.817,3.289H151.1l8.395-15.4h3.721Zm-6.577-5.971L161.485,238l-3.721,6.837Z" transform="translate(-20.42 -234.881)"/>
      <path id="Path_692" data-name="Path 692" d="M197.6,250.8h-4.5L182.629,237.91V250.8H179.6V235.4h4.5l10.472,12.895V235.4H197.6Z" transform="translate(-24.255 -234.881)"/>
      <path id="Path_693" data-name="Path 693" d="M235.7,235.4l-8.568,15.4h-3.462L215.1,235.4h3.289l6.923,12.808,6.923-12.808Z" transform="translate(-29.032 -234.881)"/>
      <path id="Path_694" data-name="Path 694" d="M260,250.8h-3.289l-1.817-3.289H244.506l-1.817,3.289H239.4l8.395-15.4h3.721Zm-6.577-5.971L249.785,238l-3.721,6.837Z" transform="translate(-32.302 -234.881)"/>
      <path id="Path_695" data-name="Path 695" d="M285.9,250.8h-4.5L270.929,237.91V250.8H267.9V235.4h4.5l10.472,12.895V235.4H285.9Z" transform="translate(-36.138 -234.881)"/>
      <path id="Path_696" data-name="Path 696" d="M321.272,250.8H306.3V235.4h3.029v12.722h11.943Z" transform="translate(-41.305 -234.881)"/>
      <path id="Path_697" data-name="Path 697" d="M346.951,243.022a7.225,7.225,0,0,1-3.2,6.145,11.121,11.121,0,0,1-6.923,1.99,11.7,11.7,0,0,1-6.923-1.99,7.225,7.225,0,0,1-3.2-6.145,7.309,7.309,0,0,1,3.289-6.145,11.512,11.512,0,0,1,6.923-2.077,11.248,11.248,0,0,1,6.837,2.077A7.225,7.225,0,0,1,346.951,243.022Zm-3.116,0a4.722,4.722,0,0,0-1.99-3.894,7.9,7.9,0,0,0-5.02-1.558,7.983,7.983,0,0,0-5.106,1.558,4.955,4.955,0,0,0-.087,7.875,9.147,9.147,0,0,0,10.212,0A4.88,4.88,0,0,0,343.836,243.022Z" transform="translate(-44.05 -234.8)"/>
      <path id="Path_698" data-name="Path 698" d="M375.851,243.022a7.226,7.226,0,0,1-3.2,6.145,11.121,11.121,0,0,1-6.923,1.99,11.7,11.7,0,0,1-6.923-1.99,7.225,7.225,0,0,1-3.2-6.145,7.309,7.309,0,0,1,3.289-6.145,11.512,11.512,0,0,1,6.923-2.077,11.248,11.248,0,0,1,6.837,2.077A7.44,7.44,0,0,1,375.851,243.022Zm-3.2,0a4.722,4.722,0,0,0-1.99-3.894,7.9,7.9,0,0,0-5.019-1.558,7.983,7.983,0,0,0-5.106,1.558,4.955,4.955,0,0,0-.087,7.875,9.147,9.147,0,0,0,10.212,0A4.657,4.657,0,0,0,372.649,243.022Z" transform="translate(-47.939 -234.8)"/>
    </g>
    <g id="Group_554" data-name="Group 554" transform="translate(0.187 229.166)">
      <path id="Path_699" data-name="Path 699" d="M9.806,272.716H8.422l-.865-1.731H2.45l-.865,1.731H.2L4.181,265.1H5.739ZM6.95,269.86l-1.9-3.635-1.99,3.635Z" transform="translate(-0.2 -264.84)"/>
      <path id="Path_700" data-name="Path 700" d="M36.254,272.716H34.783l-2.077-2.856H28.9v2.856H27.6V265.1h5.971a2.8,2.8,0,0,1,1.9.606,2.549,2.549,0,0,1,.173,3.289,2.352,2.352,0,0,1-1.385.692Zm-2.769-4.068c.952,0,1.471-.433,1.471-1.212q0-1.3-1.558-1.3H28.985v2.423h4.5Z" transform="translate(-3.887 -264.84)"/>
      <path id="Path_701" data-name="Path 701" d="M63.46,266.79l-1.125.433a4.305,4.305,0,0,0-3.2-1.212,4.206,4.206,0,0,0-2.6.779,2.394,2.394,0,0,0-.952,2.077,2.633,2.633,0,0,0,.952,2.077,4.3,4.3,0,0,0,2.683.779,4.446,4.446,0,0,0,3.2-1.212l1.039.606a4.645,4.645,0,0,1-1.817,1.385,6.878,6.878,0,0,1-2.51.433,5.583,5.583,0,0,1-3.375-1.039,3.724,3.724,0,0,1,0-6.058,5.822,5.822,0,0,1,7.7.952Z" transform="translate(-7.467 -264.8)"/>
      <path id="Path_702" data-name="Path 702" d="M90.768,272.716H89.556v-3.375H83.5v3.375H82.2V265.1h1.3v3.116h6.058V265.1h1.212Z" transform="translate(-11.235 -264.84)"/>
      <path id="Path_703" data-name="Path 703" d="M111.212,272.716H110V265.1h1.212Z" transform="translate(-14.976 -264.84)"/>
      <path id="Path_704" data-name="Path 704" d="M136.168,266.225h-3.635v6.491h-1.3v-6.491H127.6V265.1h8.481v1.125Z" transform="translate(-17.344 -264.84)"/>
      <path id="Path_705" data-name="Path 705" d="M161.862,272.716H153.9V265.1h7.616v1.125h-6.4v1.9h4.414v1.125h-4.414v2.25h6.664v1.212Z" transform="translate(-20.883 -264.84)"/>
      <path id="Path_706" data-name="Path 706" d="M188.16,266.79l-1.125.433a4.305,4.305,0,0,0-3.2-1.212,4.206,4.206,0,0,0-2.6.779,2.394,2.394,0,0,0-.952,2.077,2.633,2.633,0,0,0,.952,2.077,4.3,4.3,0,0,0,2.683.779,4.446,4.446,0,0,0,3.2-1.212l1.039.606a4.645,4.645,0,0,1-1.817,1.385,6.878,6.878,0,0,1-2.51.433,5.583,5.583,0,0,1-3.375-1.039,3.724,3.724,0,0,1,0-6.058,5.154,5.154,0,0,1,3.289-1.039A5.246,5.246,0,0,1,188.16,266.79Z" transform="translate(-24.248 -264.8)"/>
      <path id="Path_707" data-name="Path 707" d="M213.381,266.225h-3.635v6.491h-1.212v-6.491H204.9V265.1h8.481v1.125Z" transform="translate(-27.746 -264.84)"/>
      <path id="Path_708" data-name="Path 708" d="M238.962,272.716H231V265.1h7.616v1.125h-6.4v1.9h4.414v1.125h-4.414v2.25h6.664v1.212Z" transform="translate(-31.259 -264.84)"/>
      <path id="Path_709" data-name="Path 709" d="M265.868,272.716H264.31l-5.8-6.231v6.231H257.3V265.1h1.558l5.8,6.231V265.1h1.212Z" transform="translate(-34.798 -264.84)"/>
      <path id="Path_710" data-name="Path 710" d="M292.616,268.721a1.808,1.808,0,0,1,1.3,1.9c0,1.3-.952,1.99-2.856,1.99H285V265h6.145a2.438,2.438,0,0,1,1.817.606,1.849,1.849,0,0,1,.692,1.471A2.005,2.005,0,0,1,292.616,268.721Zm-1.471-.433a1.462,1.462,0,0,0,.865-.26.787.787,0,0,0,.346-.692.94.94,0,0,0-.346-.779,1.292,1.292,0,0,0-.865-.26h-4.933v2.077h4.933Zm-.173,3.2q1.558,0,1.558-1.039c0-.779-.433-1.125-1.385-1.125h-5.019v2.164Z" transform="translate(-38.525 -264.827)"/>
      <path id="Path_711" data-name="Path 711" d="M321.081,270.206a2.176,2.176,0,0,1-1.125,1.9,6.621,6.621,0,0,1-6.231,0,2.176,2.176,0,0,1-1.125-1.9V265.1h1.3v4.846a1.559,1.559,0,0,0,.779,1.385,4.174,4.174,0,0,0,2.25.433,5.185,5.185,0,0,0,2.25-.433,1.559,1.559,0,0,0,.779-1.385V265.1h1.3v5.106Z" transform="translate(-42.239 -264.84)"/>
      <path id="Path_712" data-name="Path 712" d="M348.754,272.716h-1.471l-2.077-2.856H341.4v2.856h-1.3V265.1h5.971a2.8,2.8,0,0,1,1.9.606,2.549,2.549,0,0,1,.173,3.289,2.352,2.352,0,0,1-1.385.692Zm-2.856-4.068c.952,0,1.471-.433,1.471-1.212q0-1.3-1.558-1.3H341.4v2.423h4.5Z" transform="translate(-45.94 -264.84)"/>
      <path id="Path_713" data-name="Path 713" d="M376.466,268.868a3.658,3.658,0,0,1-1.558,3.029,5.238,5.238,0,0,1-3.375,1.039,5.584,5.584,0,0,1-3.375-1.039,3.549,3.549,0,0,1-1.558-3.029,3.657,3.657,0,0,1,1.558-3.029,5.726,5.726,0,0,1,6.577,0A3.434,3.434,0,0,1,376.466,268.868Zm-1.3,0a2.489,2.489,0,0,0-1.125-2.164,4.653,4.653,0,0,0-5.019.087,2.394,2.394,0,0,0-.952,2.077,2.633,2.633,0,0,0,.952,2.077,3.876,3.876,0,0,0,2.6.779,4.206,4.206,0,0,0,2.6-.779A2.908,2.908,0,0,0,375.168,268.868Z" transform="translate(-49.506 -264.8)"/>
    </g>
  </g>
</svg>
