<svg xmlns="http://www.w3.org/2000/svg" viewBox="9276 10492 373.1 55.5">
  <defs>
    <style>
      .cls-1 {
        fill: #010101;
      }

      .cls-2 {
        fill: #b1d78a;
      }

      .cls-3 {
        fill: #7ac15d;
      }
    </style>
  </defs>
  <g id="Group_552" data-name="Group 552" transform="translate(9276 10492)">
    <path id="Path_672" data-name="Path 672" class="cls-1" d="M91.4,54.1V49.2c-3.2,3.7-9.3,6.3-14.2,6.3C65,55.5,57.5,45.1,57.5,33.6c0-11.7,8.3-21.4,20.3-21.4a17.933,17.933,0,0,1,13.6,6.5V13.6h8.9V54.1Zm-12.2-33c-7.2,0-12,6.1-12,13a12.21,12.21,0,0,0,12,12.5c7.3,0,11.9-5.9,11.9-12.9S86.4,21.1,79.2,21.1Z"/>
    <path id="Path_673" data-name="Path 673" class="cls-1" d="M131.6,54.1v-20c0-5.6-1.1-13-8.2-13a8.208,8.208,0,0,0-7.4,5c-1.1,2.5-1,6-1,8.7V54.1h-9.7V13.5h9v3.6c3.2-3.2,6.4-4.9,11-4.9a15.642,15.642,0,0,1,13.9,8.3c1.9,3.7,2,7.6,2,11.8V54.2h-9.6Z"/>
    <path id="Path_674" data-name="Path 674" class="cls-1" d="M177.5,54.1V49.2a18.715,18.715,0,0,1-13.9,6.3c-11.4,0-19.9-10.5-19.9-21.6,0-11.3,8.7-21.7,20.4-21.7a18.855,18.855,0,0,1,12.6,5V0h9.7V54.1Zm-12.2-33c-6.6,0-11.9,6.1-11.9,12.5,0,6.7,4.9,13,12,13,6.9,0,11.9-6.1,11.9-12.7C177.3,27.1,172.2,21.1,165.3,21.1Z"/>
    <path id="Path_675" data-name="Path 675" class="cls-1" d="M230.9,38.1H199.4a11.433,11.433,0,0,0,10.8,8.4c4.1,0,7-1.9,9.1-5.3H230c-2.5,8.3-10.9,14.2-19.5,14.2a21.341,21.341,0,0,1-21.4-21.6c0-11.8,9.2-22,21.3-22a21.255,21.255,0,0,1,21,21.3A26.477,26.477,0,0,1,230.9,38.1ZM210.6,20.8a11.593,11.593,0,0,0-11.5,9.5H222C220.7,24.8,216.4,20.8,210.6,20.8Z"/>
    <path id="Path_676" data-name="Path 676" class="cls-1" d="M234.3,54.1V0H244V54.1Z"/>
    <path id="Path_677" data-name="Path 677" class="cls-1" d="M271.4,55.5c-5.7,0-9.8-2-13.6-6.2v4.9h-8.9V0h9.7V17.3a17.045,17.045,0,0,1,12.6-5.1c11.8,0,20.4,10.3,20.4,21.7C291.6,45.4,283.4,55.5,271.4,55.5Zm-1.3-34.4A12.207,12.207,0,0,0,258,33.5c0,7.1,4.9,13.1,12.2,13.1s11.7-5.9,11.7-12.8S277.2,21.1,270.1,21.1Z"/>
    <path id="Path_678" data-name="Path 678" class="cls-1" d="M304.2,31.3V54.1h-9.7V13.5h8.9v3.6c2.5-3.3,4.5-5,8.8-5a1.7,1.7,0,0,1,.7.1v9.4C306.7,21.9,304.2,25.2,304.2,31.3Z"/>
    <path id="Path_679" data-name="Path 679" class="cls-1" d="M332.3,55.5a21.6,21.6,0,1,1,.1-43.2,21.6,21.6,0,0,1-.1,43.2Zm.1-34.4c-6.8,0-11.9,6.2-11.9,12.7,0,6.8,4.9,12.7,11.9,12.7,6.9,0,11.8-5.9,11.8-12.6C344.2,27.4,339.3,21.1,332.4,21.1Z"/>
    <path id="Path_680" data-name="Path 680" class="cls-1" d="M367.3,22.5V54.1h-9.7V22.5h-4.8V13.6h4.8V0h9.7V13.5h5.8v8.9h-5.8Z"/>
    <path id="Path_681" data-name="Path 681" class="cls-2" d="M6.9,0H0V54.1H11V0Z"/>
    <path id="Path_682" data-name="Path 682" class="cls-1" d="M46.8,0H42.7L22.2,54.1h9.4L42.8,24.4V54.1h11V0Z"/>
    <path id="Path_683" data-name="Path 683" class="cls-3" d="M11.1,0H11V24.4L22.2,54.1h9.4Z"/>
  </g>
</svg>
