<svg xmlns="http://www.w3.org/2000/svg" viewBox="8668 4095 273.1 91.9">
  <g id="Group_498" data-name="Group 498" transform="translate(8668 4095)">
    <path id="Path_350" data-name="Path 350" d="M34.8,0H0L56.7,91.9H89.2Z"/>
    <path id="Path_351" data-name="Path 351" d="M270.5,91.9h2.6V0h-2.6Z"/>
    <path id="Path_352" data-name="Path 352" d="M0,91.9H2.6V0H0Z"/>
    <path id="Path_353" data-name="Path 353" d="M86.7,91.9h2.5V0H86.7Z"/>
    <g id="Group_497" data-name="Group 497">
      <path id="Path_354" data-name="Path 354" d="M164.6,0H129.7l56.7,91.9h32.5Z"/>
      <g id="Group_496" data-name="Group 496">
        <path id="Path_355" data-name="Path 355" d="M155.7,70.2l40.1-48L214.4,0h-3.3L134.2,91.9h3.4Z"/>
      </g>
    </g>
  </g>
</svg>
