<svg xmlns="http://www.w3.org/2000/svg" viewBox="8619 8499 360.601 66.9">
  <defs>
    <style>
      .cls-1 {
        fill: #b27f2c;
      }
    </style>
  </defs>
  <g id="Group_504" data-name="Group 504" transform="translate(8618.9 8499)">
    <path id="Path_391" data-name="Path 391" class="cls-1" d="M32.7,50.2c0,7.4-6.5,12.4-15.9,12.4C7.9,62.6,2.2,58.5.1,52.9l3.7-2.2c1.6,4.8,6.5,7.8,12.9,7.8S28,55.8,28,50.1C28,38,1.3,45,1.3,29.1c0-7,5.9-12.4,15.1-12.4,7.4,0,12.7,3.5,15.1,8.9l-3.7,2.1C26,22.8,21.3,21,16.5,21c-5.7,0-10.6,3-10.6,8.5C5.9,41,32.7,34,32.7,50.2Z"/>
    <path id="Path_392" data-name="Path 392" class="cls-1" d="M52.6,22.1V50.7c0,7.8,4.1,7.8,13.2,7.4v4.1C54.2,64,48.3,61.1,48.3,51.1v-29H38.6V17.5h9.7V6.7l4.3-1.3V17.8H65.8v4.3H52.6Z"/>
    <path id="Path_393" data-name="Path 393" class="cls-1" d="M114.4,17.5V61.7h-4.3V53.4a16.759,16.759,0,0,1-15.9,9.5c-10.5,0-17.3-7-17.3-17.5V17.5h4.6V45c0,8.1,4.6,13.5,12.9,13.5s15.4-5.7,15.4-17.5V17.5Z"/>
    <path id="Path_394" data-name="Path 394" class="cls-1" d="M173.2,0V61.8h-4.3V51.6A21.141,21.141,0,0,1,150,62.9a22.96,22.96,0,0,1-.4-45.9h.4a20.287,20.287,0,0,1,18.9,11.3V0Zm-4.3,39.7a18.6,18.6,0,1,0-18.6,18.6h0A18.565,18.565,0,0,0,168.9,39.7Z"/>
    <path id="Path_395" data-name="Path 395" class="cls-1" d="M187.3,3.5a3.5,3.5,0,0,1,7,0,3.5,3.5,0,0,1-7,0Z"/>
    <rect id="Rectangle_529" data-name="Rectangle 529" class="cls-1" width="4.3" height="44.3" transform="translate(188.6 17.5)"/>
    <path id="Path_396" data-name="Path 396" class="cls-1" d="M205.4,39.7a23.2,23.2,0,1,1,23.5,23h-.3A22.462,22.462,0,0,1,205.4,41h0A5.634,5.634,0,0,1,205.4,39.7Zm41.8,0a18.6,18.6,0,1,0-18.6,18.6,18.565,18.565,0,0,0,18.6-18.6Z"/>
    <path id="Path_397" data-name="Path 397" class="cls-1" d="M353.2,16.5A24.534,24.534,0,0,0,334,7.6H287.6v24h4.3V11.9H334c12.9,0,22.1,11.3,22.1,25.4S346.9,62.7,334,62.7H292V42.9h-4.3v24h46.4A25,25,0,0,0,353.3,58a32.86,32.86,0,0,0,7.4-20.8A31.932,31.932,0,0,0,353.2,16.5Z"/>
  </g>
</svg>
