<?xml version="1.0" standalone="no"?>
<!DOCTYPE svg PUBLIC "-//W3C//DTD SVG 1.1//EN" "http://www.w3.org/Graphics/SVG/1.1/DTD/svg11.dtd" >
<svg xmlns="http://www.w3.org/2000/svg">
<metadata>Generated by IcoMoon</metadata>
<defs>
<font id="icons" horiz-adv-x="1024">
<font-face units-per-em="1024" ascent="960" descent="-64" />
<missing-glyph horiz-adv-x="1024" />
<glyph unicode="&#x20;" horiz-adv-x="512" d="" />
<glyph unicode="&#xe001;" glyph-name="strak" horiz-adv-x="801" d="M501.76 556.8c-110.080 26.88-153.6 46.080-168.96 56.32-18.326 10.662-30.501 30.125-30.72 52.449v0.031c-0.044 0.914-0.069 1.984-0.069 3.061 0 20.85 9.441 39.495 24.282 51.892l0.107 0.087c18.863 13.706 42.483 21.926 68.023 21.926 2.187 0 4.36-0.060 6.517-0.179l-0.3 0.013c45.099-0.081 88.203-8.526 127.874-23.868l-2.434 0.828-171.52 240.64c-77.002-5.935-146.726-32.875-204.665-75.034l1.145 0.794c-69.12-52.48-104.96-128-104.96-224s28.16-167.68 83.2-213.76c53.76-43.52 138.24-80.64 252.16-107.52 67.84-16.64 113.92-33.28 135.68-48.64 17.136-12.676 28.125-32.816 28.125-55.521 0-22.143-10.451-41.844-26.688-54.442l-0.157-0.117c-21.312-13.787-47.359-21.982-75.32-21.982-2.772 0-5.525 0.081-8.257 0.239l0.378-0.018c-83.2 0-176.64 44.8-276.48 131.84l-12.8 11.52-145.92-183.040 11.52-10.24c124.16-115.2 266.24-174.080 422.4-174.080 108.8 0 198.4 28.16 264.96 84.48 62.755 51.282 102.498 128.681 102.498 215.363 0 2.587-0.035 5.166-0.106 7.736l0.008-0.379c0 90.88-26.88 161.28-80.64 208.64s-125.44 81.92-218.88 104.96z" />
<glyph unicode="&#xe100;" glyph-name="chevron-up" d="M512 739.84c-20.48 0-35.84-5.12-51.2-20.48l-440.32-440.32c-30.72-30.72-30.72-71.68 0-102.4s71.68-30.72 102.4 0l389.12 389.12 389.12-389.12c30.72-30.72 71.68-30.72 102.4 0s30.72 71.68 0 102.4c0 0 0 0 0 0l-440.32 440.32c-15.36 15.36-30.72 20.48-51.2 20.48z" />
<glyph unicode="&#xe101;" glyph-name="chevron-down" d="M512 156.16c0.216-0.002 0.471-0.004 0.726-0.004 19.727 0 37.58 8.027 50.471 20.992l440.323 440.323c13.103 13.103 21.208 31.205 21.208 51.2 0 39.99-32.418 72.408-72.408 72.408-19.995 0-38.097-8.105-51.2-21.208v0l-389.12-390.656-389.632 389.632c-13.103 13.103-31.205 21.208-51.2 21.208-39.99 0-72.408-32.418-72.408-72.408 0-19.995 8.105-38.097 21.208-51.2v0l440.832-439.296c12.971-12.971 30.891-20.994 50.685-20.994 0.181 0 0.362 0.001 0.543 0.002h-0.028z" />
<glyph unicode="&#xe102;" glyph-name="chevron-left" d="M220.16 448c0-20.48 5.12-35.84 20.48-51.2l440.32-440.32c30.72-30.72 71.68-30.72 102.4 0s30.72 71.68 0 102.4l-389.12 389.12 389.12 389.12c30.72 30.72 30.72 71.68 0 102.4s-71.68 30.72-102.4 0c0 0 0 0 0 0l-440.32-440.32c-15.36-15.36-20.48-30.72-20.48-51.2z" />
<glyph unicode="&#xe103;" glyph-name="chevron-right" d="M803.84 448c0 20.48-5.12 35.84-20.48 51.2l-440.32 440.32c-30.72 30.72-71.68 30.72-102.4 0s-30.72-71.68 0-102.4l389.12-389.12-389.12-389.12c-30.72-30.72-30.72-71.68 0-102.4s71.68-30.72 102.4 0c0 0 0 0 0 0l440.32 440.32c15.36 15.36 20.48 30.72 20.48 51.2z" />
<glyph unicode="&#xe104;" glyph-name="search" d="M992.256 89.6l-242.688 204.8c-18.946 18.944-44.863 30.916-73.573 31.74l-0.155 0.004c57.078 66.617 91.82 153.837 91.82 249.172 0 212.077-171.923 384-384 384s-384-171.923-384-384c0-212.077 171.923-384 384-384 95.335 0 182.556 34.742 249.693 92.255l-0.52-0.435c1.34-28.63 13.628-54.153 32.74-72.677l0.028-0.027 204.8-242.688c15.593-15.593 37.134-25.237 60.928-25.237 47.588 0 86.165 38.577 86.165 86.165 0 23.794-9.644 45.335-25.237 60.928v0zM384 320c-141.385 0-256 114.615-256 256s114.615 256 256 256c141.385 0 256-114.615 256-256v0c0-141.385-114.615-256-256-256v0z" />
<glyph unicode="&#xe200;" glyph-name="exclamation-circle" d="M512 886.857q119.429 0 220.286-58.857t159.714-159.714 58.857-220.286-58.857-220.286-159.714-159.714-220.286-58.857-220.286 58.857-159.714 159.714-58.857 220.286 58.857 220.286 159.714 159.714 220.286 58.857zM585.143 174.286v108.571q0 8-5.143 13.429t-12.571 5.429h-109.714q-7.429 0-13.143-5.714t-5.714-13.143v-108.571q0-7.429 5.714-13.143t13.143-5.714h109.714q7.429 0 12.571 5.429t5.143 13.429zM584 370.857l10.286 354.857q0 6.857-5.714 10.286-5.714 4.571-13.714 4.571h-125.714q-8 0-13.714-4.571-5.714-3.429-5.714-10.286l9.714-354.857q0-5.714 5.714-10t13.714-4.286h105.714q8 0 13.429 4.286t6 10z" />
<glyph unicode="&#xe900;" glyph-name="facebook" d="M384 618.667h-128v-170.667h128v-512h213.333v512h155.392l15.275 170.667h-170.667v71.125c0 40.747 8.192 56.875 47.573 56.875h123.093v213.333h-162.475c-153.429 0-221.525-67.541-221.525-196.907v-144.427z" />
<glyph unicode="&#xe901;" glyph-name="facebook-messenger" d="M512.148 960c-282.834 0-512.148-212.328-512.148-474.207 0-149.249 74.475-282.364 190.861-369.259v-180.831l174.386 95.686c46.52-12.846 95.857-19.803 146.901-19.803 282.834 0 512.148 212.285 512.148 474.207 0 261.878-229.314 474.207-512.148 474.207zM563.064 321.394l-130.427 139.091-254.495-139.091 279.932 297.174 133.585-139.091 251.337 139.091-279.932-297.174z" />
<glyph unicode="&#xe902;" glyph-name="twitter" d="M1024 765.568c-37.675-16.725-78.165-27.989-120.661-33.067 43.392 25.984 76.715 67.157 92.373 116.224-40.576-24.064-85.547-41.557-133.419-50.987-38.272 40.832-92.928 66.347-153.344 66.347-135.637 0-235.307-126.549-204.672-257.92-174.549 8.747-329.344 92.373-432.981 219.477-55.040-94.421-28.544-217.941 64.981-280.491-34.389 1.109-66.816 10.539-95.104 26.283-2.304-97.323 67.456-188.373 168.491-208.64-29.568-8.021-61.952-9.899-94.891-3.584 26.709-83.456 104.277-144.171 196.267-145.877-88.32-69.248-199.595-100.181-311.040-87.040 92.971-59.605 203.435-94.379 322.048-94.379 390.059 0 610.432 329.429 597.12 624.896 41.045 29.653 76.672 66.645 104.832 108.757z" />
<glyph unicode="&#xe903;" glyph-name="instagram" d="M512 867.712c136.704 0 152.917-0.512 206.933-2.987 138.752-6.315 203.563-72.149 209.877-209.877 2.475-53.973 2.944-70.187 2.944-206.891 0-136.747-0.512-152.917-2.944-206.891-6.357-137.6-70.997-203.563-209.877-209.877-54.016-2.475-70.144-2.987-206.933-2.987-136.704 0-152.917 0.512-206.891 2.987-139.093 6.357-203.563 72.491-209.877 209.92-2.475 53.973-2.987 70.144-2.987 206.891 0 136.704 0.555 152.875 2.987 206.891 6.357 137.685 70.997 203.563 209.877 209.877 54.016 2.432 70.187 2.944 206.891 2.944zM512 960c-139.051 0-156.459-0.597-211.072-3.072-185.941-8.533-289.28-111.701-297.813-297.813-2.517-54.656-3.115-72.064-3.115-211.115s0.597-156.501 3.072-211.115c8.533-185.941 111.701-289.28 297.813-297.813 54.656-2.475 72.064-3.072 211.115-3.072s156.501 0.597 211.115 3.072c185.771 8.533 289.365 111.701 297.771 297.813 2.517 54.613 3.115 72.064 3.115 211.115s-0.597 156.459-3.072 211.072c-8.363 185.771-111.659 289.28-297.771 297.813-54.656 2.517-72.107 3.115-211.157 3.115zM512 710.912c-145.195 0-262.912-117.717-262.912-262.912s117.717-262.955 262.912-262.955 262.912 117.717 262.912 262.955c0 145.195-117.717 262.912-262.912 262.912zM512 277.333c-94.251 0-170.667 76.373-170.667 170.667 0 94.251 76.416 170.667 170.667 170.667s170.667-76.416 170.667-170.667c0-94.293-76.416-170.667-170.667-170.667zM785.323 782.72c-33.963 0-61.483-27.52-61.483-61.44s27.52-61.44 61.483-61.44c33.92 0 61.397 27.52 61.397 61.44s-27.477 61.44-61.397 61.44z" />
<glyph unicode="&#xe904;" glyph-name="linkedin" d="M212.48 810.667c0-58.923-47.36-106.667-105.813-106.667s-105.813 47.744-105.813 106.667c0 58.88 47.36 106.667 105.813 106.667s105.813-47.787 105.813-106.667zM213.333 618.667h-213.333v-682.667h213.333v682.667zM553.899 618.667h-211.968v-682.667h212.011v358.357c0 199.253 257.237 215.552 257.237 0v-358.357h212.821v432.256c0 336.213-380.672 323.968-470.101 158.464v91.947z" />
<glyph unicode="&#xe905;" glyph-name="vimeo" d="M976 530.645c-104.192-222.592-355.712-525.611-514.688-525.611-156.672 0-179.328 334.123-264.875 556.501-42.112 109.44-69.291 84.309-148.224 29.056l-48.128 62.080c115.115 101.205 230.315 218.752 301.099 225.28 79.701 7.637 128.768-46.848 147.115-163.499 24.235-153.301 58.112-391.253 117.248-391.253 46.080 0 159.616 188.757 165.461 256.256 10.368 98.816-72.661 101.803-144.725 70.955 114.048 373.504 588.501 304.725 389.717-119.765z" />
<glyph unicode="&#xe906;" glyph-name="youtube" d="M836.907 824.149c-153.771 10.496-496.256 10.453-649.813 0-166.272-11.349-185.856-111.787-187.093-376.149 1.237-263.893 20.651-364.757 187.093-376.149 153.6-10.453 496.043-10.496 649.813 0 166.272 11.349 185.856 111.787 187.093 376.149-1.237 263.893-20.651 364.757-187.093 376.149zM384 277.333v341.333l341.333-170.368-341.333-170.965z" />
</font></defs></svg>