<?xml version="1.0" encoding="utf-8"?>
<!-- Generator: Adobe Illustrator 21.1.0, SVG Export Plug-In . SVG Version: 6.00 Build 0)  -->
<svg version="1.1" id="Layer_1" xmlns="http://www.w3.org/2000/svg" xmlns:xlink="http://www.w3.org/1999/xlink" x="0px" y="0px"
	 viewBox="0 0 100 128" style="enable-background:new 0 0 100 128;" xml:space="preserve">
<title>STRAK</title>
<path d="M62.6,50.4c-13.7-3.4-19.2-5.8-21.1-7c-2.3-1.4-3.8-3.8-3.8-6.6c-0.1-2.6,1-5.2,3-6.9c2.7-1.9,6-2.9,9.3-2.7
	c5.3,0,10.7,1,15.7,2.9L44.2,0c-9.2,0.7-17.9,3.9-25.4,9.3c-8.6,6.6-13.1,16-13.1,28s3.5,21,10.4,26.7c6.7,5.4,17.3,10.1,31.5,13.4
	c8.5,2.1,14.2,4.2,16.9,6.1c3.8,2.8,4.7,8.2,1.8,12c-0.5,0.7-1,1.2-1.7,1.7c-3.1,2-6.7,2.9-10.4,2.7c-10.4,0-22-5.6-34.5-16.5
	l-1.6-1.4L0,105l1.4,1.3C16.9,120.6,34.7,128,54.1,128c13.6,0,24.8-3.5,33.1-10.6c8.3-6.8,13.1-17.1,12.8-27.8
	c0-11.4-3.4-20.2-10.1-26.1S74.3,53.3,62.6,50.4z"/>
</svg>
